Assignment3: Esoph and Youth Survey
…
1.3. Relationship Between The Cancer Case and Alcohol Consumption

This analyse sents a warn message to the people who takes 120 g alcohol per a day. Unfortunately high level alcohol consumption could be deadly especially for people who are older than 45 years old.

dt2<- esoph %>%
  group_by(agegp,alcgp)%>%
  summarise(total_ncases = sum(ncases), total_control = sum(ncontrols))%>%
  mutate(Cancer_Rate = total_ncases*100/ total_control)%>%
  arrange(desc(Cancer_Rate))
  
  dt2

## # A tibble: 24 x 5
## # Groups:   agegp [6]
##    agegp alcgp  total_ncases total_control Cancer_Rate
##    <ord> <ord>         <dbl>         <dbl>       <dbl>
##  1 75+   80-119            2             2       100  
##  2 75+   120+              3             3       100  
##  3 45-54 120+             13            15        86.7
##  4 65-74 120+              6             8        75  
##  5 55-64 120+             18            26        69.2
##  6 55-64 80-119           24            43        55.8
##  7 65-74 40-79            25            53        47.2
##  8 65-74 80-119           13            29        44.8
##  9 35-44 120+              4            10        40  
## 10 75+   40-79             4            12        33.3
## # ... with 14 more rows
…
1.4. Relationship Between The Cancer Case and Tobacco Consumption

This analyse also sents a warn message to the people who takes 30 g tobacco per a day. It could be more dangerous especially for people who are older than 45 years old.

dt3<- esoph %>%
  group_by(agegp,tobgp)%>%
  summarise(total_ncases = sum(ncases), total_control = sum(ncontrols))%>%
  mutate(Cancer_Rate = total_ncases*100/ total_control)%>%
  arrange(desc(Cancer_Rate))
  
  dt3

## # A tibble: 24 x 5
## # Groups:   agegp [6]
##    agegp tobgp    total_ncases total_control Cancer_Rate
##    <ord> <ord>           <dbl>         <dbl>       <dbl>
##  1 55-64 30+                16            22        72.7
##  2 45-54 30+                11            19        57.9
##  3 65-74 20-29              10            20        50  
##  4 65-74 30+                 2             4        50  
##  5 75+   30+                 2             4        50  
##  6 75+   10-19               5            11        45.5
##  7 55-64 10-19              23            65        35.4
##  8 55-64 20-29              12            38        31.6
##  9 65-74 10-19              12            38        31.6
## 10 65-74 0-9g/day           31            99        31.3
## # ... with 14 more rows
…
1.5. Effectivness of Both Alcohol and Tobacco Consumption

According to the last two analysis not only tobacco but also alcohol consumption is too harmfull for especially elderly people. Now in this last analysis we tried to understand what will happen if people uses these two bad habit together. If a person take more than 40-79 g alcohol per a day with +30 g tobacco, s/he will definetely get cancer disease at the end. However even if a person with tobacco habit will use more thant 80 g alcohol per a day, s/he will definetely get cancer disease at the end also.

dt3<- esoph %>%
  group_by(agegp,alcgp, tobgp)%>%
  summarise(total_ncases = sum(ncases), total_control = sum(ncontrols))%>%
  mutate(Cancer_Rate = total_ncases*100/ total_control)%>%
  arrange(desc(Cancer_Rate))
  
  dt2

## # A tibble: 24 x 5
## # Groups:   agegp [6]
##    agegp alcgp  total_ncases total_control Cancer_Rate
##    <ord> <ord>         <dbl>         <dbl>       <dbl>
##  1 75+   80-119            2             2       100  
##  2 75+   120+              3             3       100  
##  3 45-54 120+             13            15        86.7
##  4 65-74 120+              6             8        75  
##  5 55-64 120+             18            26        69.2
##  6 55-64 80-119           24            43        55.8
##  7 65-74 40-79            25            53        47.2
##  8 65-74 80-119           13            29        44.8
##  9 35-44 120+              4            10        40  
## 10 75+   40-79             4            12        33.3
## # ... with 14 more rows
…
